Coding Simulations • ordinalsimr
…
# Use tidyr::expand_grid as it creates a tibble, supporting the nested tibble structure
info_table <- tidyr::expand_grid(
  sample_size,
  sample_prob,
  prob0_list,
  prob1_list,
  niter
) 

info_table
#> # A tibble: 32 × 5
#>    sample_size sample_prob prob0_list   prob1_list   niter
#>          <dbl> <list>      <named list> <named list> <dbl>
#>  1          50 <dbl [2]>   <dbl [4]>    <dbl [4]>       20
#>  2          50 <dbl [2]>   <dbl [4]>    <dbl [4]>      100
#>  3          50 <dbl [2]>   <dbl [4]>    <dbl [4]>       20
#>  4          50 <dbl [2]>   <dbl [4]>    <dbl [4]>      100
#>  5          50 <dbl [2]>   <dbl [4]>    <dbl [4]>       20
#>  6          50 <dbl [2]>   <dbl [4]>    <dbl [4]>      100
#>  7          50 <dbl [2]>   <dbl [4]>    <dbl [4]>       20
#>  8          50 <dbl [2]>   <dbl [4]>    <dbl [4]>      100
#>  9          50 <dbl [2]>   <dbl [4]>    <dbl [4]>       20
#> 10          50 <dbl [2]>   <dbl [4]>    <dbl [4]>      100
#> # ℹ 22 more rows
…
