Using {ordinalsimr} • ordinalsimr
…
Bug reports and feature requests can be submitted as issues at https://github.com/NeuroShepherd/ordinalsimr/issues

Using Downloaded Data

Data downloaded after running a simulation is stored as a
.rds file, and can be loaded into your R session using
readRDS(). The data is structured as a named list with 3
elements at the top level, and several sub-elements. A summary of the
available information is available in the code below.

output <- readRDS("data-2025-01-19-d8621b-1.rds")
output$comparison_data$distribution_statistics
#> # A tibble: 36 × 10
#> # Groups:   Sample Size [6]
#>    `Sample Size` test   lower_power_bound upper_power_bound power `Power 95% CI`
#>            <int> <chr>              <dbl>             <dbl> <dbl> <chr>         
#>  1            30 Wilco…             0.452             0.736  0.6  [0.452, 0.736]
#>  2            30 Fisher             0.337             0.626  0.48 [0.337, 0.626]
#>  3            30 Chi S…             0.374             0.663  0.52 [0.374, 0.663]
#>  4            30 Chi S…             0.374             0.663  0.52 [0.374, 0.663]
#>  5            30 Prop.…             0.472             0.753  0.62 [0.472, 0.753]
#>  6            30 Coin …             0.472             0.753  0.62 [0.472, 0.753]
#>  7            31 Wilco…             0.512             0.788  0.66 [0.512, 0.788]
#>  8            31 Fisher             0.337             0.626  0.48 [0.337, 0.626]
#>  9            31 Chi S…             0.374             0.663  0.52 [0.374, 0.663]
#> 10            31 Chi S…             0.374             0.663  0.52 [0.374, 0.663]
#> # ℹ 26 more rows
#> # ℹ 4 more variables: lower_t2error_bound <dbl>, upper_t2error_bound <dbl>,
#> #   t2_error <dbl>, `TII Error 95% CI` <chr>
…
